HW2/hw2_1/dump.vcd
$date
	Sun Feb 13 22:22:41 2022
$end
$version
	ModelSim Version 2020.1
$end
$timescale
	1ps
$end

$scope module shifter_hier_bench $end
$var parameter 32 ! OP_WIDTH $end
$var parameter 32 " SHAMT_WIDTH $end
$var parameter 32 # NUM_OPS $end
$var reg 16 $ In [15:0] $end
$var reg 4 % ShAmt [3:0] $end
$var reg 2 & Oper [1:0] $end
$var wire 1 ' Out [15] $end
$var wire 1 ( Out [14] $end
$var wire 1 ) Out [13] $end
$var wire 1 * Out [12] $end
$var wire 1 + Out [11] $end
$var wire 1 , Out [10] $end
$var wire 1 - Out [9] $end
$var wire 1 . Out [8] $end
$var wire 1 / Out [7] $end
$var wire 1 0 Out [6] $end
$var wire 1 1 Out [5] $end
$var wire 1 2 Out [4] $end
$var wire 1 3 Out [3] $end
$var wire 1 4 Out [2] $end
$var wire 1 5 Out [1] $end
$var wire 1 6 Out [0] $end
$var reg 1 7 fail $end
$var reg 32 8 Expected [31:0] $end
$var integer 32 9 idx $end

$scope module DUT $end
$var parameter 32 : OPERAND_WIDTH $end
$var parameter 32 ; SHAMT_WIDTH $end
$var parameter 32 < NUM_OPERATIONS $end
$var wire 1 = In [15] $end
$var wire 1 > In [14] $end
$var wire 1 ? In [13] $end
$var wire 1 @ In [12] $end
$var wire 1 A In [11] $end
$var wire 1 B In [10] $end
$var wire 1 C In [9] $end
$var wire 1 D In [8] $end
$var wire 1 E In [7] $end
$var wire 1 F In [6] $end
$var wire 1 G In [5] $end
$var wire 1 H In [4] $end
$var wire 1 I In [3] $end
$var wire 1 J In [2] $end
$var wire 1 K In [1] $end
$var wire 1 L In [0] $end
$var wire 1 M ShAmt [3] $end
$var wire 1 N ShAmt [2] $end
$var wire 1 O ShAmt [1] $end
$var wire 1 P ShAmt [0] $end
$var wire 1 Q Oper [1] $end
$var wire 1 R Oper [0] $end
$var wire 1 ' Out [15] $end
$var wire 1 ( Out [14] $end
$var wire 1 ) Out [13] $end
$var wire 1 * Out [12] $end
$var wire 1 + Out [11] $end
$var wire 1 , Out [10] $end
$var wire 1 - Out [9] $end
$var wire 1 . Out [8] $end
$var wire 1 / Out [7] $end
$var wire 1 0 Out [6] $end
$var wire 1 1 Out [5] $end
$var wire 1 2 Out [4] $end
$var wire 1 3 Out [3] $end
$var wire 1 4 Out [2] $end
$var wire 1 5 Out [1] $end
$var wire 1 6 Out [0] $end
$var wire 1 S clk $end
$var wire 1 T rst $end
$var wire 1 U err $end

$scope module DUT $end
$var parameter 32 V OPERAND_WIDTH $end
$var parameter 32 W SHAMT_WIDTH $end
$var parameter 32 X NUM_OPERATIONS $end
$var wire 1 = In [15] $end
$var wire 1 > In [14] $end
$var wire 1 ? In [13] $end
$var wire 1 @ In [12] $end
$var wire 1 A In [11] $end
$var wire 1 B In [10] $end
$var wire 1 C In [9] $end
$var wire 1 D In [8] $end
$var wire 1 E In [7] $end
$var wire 1 F In [6] $end
$var wire 1 G In [5] $end
$var wire 1 H In [4] $end
$var wire 1 I In [3] $end
$var wire 1 J In [2] $end
$var wire 1 K In [1] $end
$var wire 1 L In [0] $end
$var wire 1 M ShAmt [3] $end
$var wire 1 N ShAmt [2] $end
$var wire 1 O ShAmt [1] $end
$var wire 1 P ShAmt [0] $end
$var wire 1 Q Oper [1] $end
$var wire 1 R Oper [0] $end
$var wire 1 ' Out [15] $end
$var wire 1 ( Out [14] $end
$var wire 1 ) Out [13] $end
$var wire 1 * Out [12] $end
$var wire 1 + Out [11] $end
$var wire 1 , Out [10] $end
$var wire 1 - Out [9] $end
$var wire 1 . Out [8] $end
$var wire 1 / Out [7] $end
$var wire 1 0 Out [6] $end
$var wire 1 1 Out [5] $end
$var wire 1 2 Out [4] $end
$var wire 1 3 Out [3] $end
$var wire 1 4 Out [2] $end
$var wire 1 5 Out [1] $end
$var wire 1 6 Out [0] $end
$var wire 1 Y left_out [15] $end
$var wire 1 Z left_out [14] $end
$var wire 1 [ left_out [13] $end
$var wire 1 \ left_out [12] $end
$var wire 1 ] left_out [11] $end
$var wire 1 ^ left_out [10] $end
$var wire 1 _ left_out [9] $end
$var wire 1 ` left_out [8] $end
$var wire 1 a left_out [7] $end
$var wire 1 b left_out [6] $end
$var wire 1 c left_out [5] $end
$var wire 1 d left_out [4] $end
$var wire 1 e left_out [3] $end
$var wire 1 f left_out [2] $end
$var wire 1 g left_out [1] $end
$var wire 1 h left_out [0] $end
$var wire 1 i right_out [15] $end
$var wire 1 j right_out [14] $end
$var wire 1 k right_out [13] $end
$var wire 1 l right_out [12] $end
$var wire 1 m right_out [11] $end
$var wire 1 n right_out [10] $end
$var wire 1 o right_out [9] $end
$var wire 1 p right_out [8] $end
$var wire 1 q right_out [7] $end
$var wire 1 r right_out [6] $end
$var wire 1 s right_out [5] $end
$var wire 1 t right_out [4] $end
$var wire 1 u right_out [3] $end
$var wire 1 v right_out [2] $end
$var wire 1 w right_out [1] $end
$var wire 1 x right_out [0] $end

$scope module iLeft $end
$var wire 1 = In [15] $end
$var wire 1 > In [14] $end
$var wire 1 ? In [13] $end
$var wire 1 @ In [12] $end
$var wire 1 A In [11] $end
$var wire 1 B In [10] $end
$var wire 1 C In [9] $end
$var wire 1 D In [8] $end
$var wire 1 E In [7] $end
$var wire 1 F In [6] $end
$var wire 1 G In [5] $end
$var wire 1 H In [4] $end
$var wire 1 I In [3] $end
$var wire 1 J In [2] $end
$var wire 1 K In [1] $end
$var wire 1 L In [0] $end
$var wire 1 R shift $end
$var wire 1 M ShAmt [3] $end
$var wire 1 N ShAmt [2] $end
$var wire 1 O ShAmt [1] $end
$var wire 1 P ShAmt [0] $end
$var wire 1 Y out [15] $end
$var wire 1 Z out [14] $end
$var wire 1 [ out [13] $end
$var wire 1 \ out [12] $end
$var wire 1 ] out [11] $end
$var wire 1 ^ out [10] $end
$var wire 1 _ out [9] $end
$var wire 1 ` out [8] $end
$var wire 1 a out [7] $end
$var wire 1 b out [6] $end
$var wire 1 c out [5] $end
$var wire 1 d out [4] $end
$var wire 1 e out [3] $end
$var wire 1 f out [2] $end
$var wire 1 g out [1] $end
$var wire 1 h out [0] $end
$var wire 1 y stage1 [15] $end
$var wire 1 z stage1 [14] $end
$var wire 1 { stage1 [13] $end
$var wire 1 | stage1 [12] $end
$var wire 1 } stage1 [11] $end
$var wire 1 ~ stage1 [10] $end
$var wire 1 !! stage1 [9] $end
$var wire 1 "! stage1 [8] $end
$var wire 1 #! stage1 [7] $end
$var wire 1 $! stage1 [6] $end
$var wire 1 %! stage1 [5] $end
$var wire 1 &! stage1 [4] $end
$var wire 1 '! stage1 [3] $end
$var wire 1 (! stage1 [2] $end
$var wire 1 )! stage1 [1] $end
$var wire 1 *! stage1 [0] $end
$var wire 1 +! stage2 [15] $end
$var wire 1 ,! stage2 [14] $end
$var wire 1 -! stage2 [13] $end
$var wire 1 .! stage2 [12] $end
$var wire 1 /! stage2 [11] $end
$var wire 1 0! stage2 [10] $end
$var wire 1 1! stage2 [9] $end
$var wire 1 2! stage2 [8] $end
$var wire 1 3! stage2 [7] $end
$var wire 1 4! stage2 [6] $end
$var wire 1 5! stage2 [5] $end
$var wire 1 6! stage2 [4] $end
$var wire 1 7! stage2 [3] $end
$var wire 1 8! stage2 [2] $end
$var wire 1 9! stage2 [1] $end
$var wire 1 :! stage2 [0] $end
$var wire 1 ;! stage3 [15] $end
$var wire 1 <! stage3 [14] $end
$var wire 1 =! stage3 [13] $end
$var wire 1 >! stage3 [12] $end
$var wire 1 ?! stage3 [11] $end
$var wire 1 @! stage3 [10] $end
$var wire 1 A! stage3 [9] $end
$var wire 1 B! stage3 [8] $end
$var wire 1 C! stage3 [7] $end
$var wire 1 D! stage3 [6] $end
$var wire 1 E! stage3 [5] $end
$var wire 1 F! stage3 [4] $end
$var wire 1 G! stage3 [3] $end
$var wire 1 H! stage3 [2] $end
$var wire 1 I! stage3 [1] $end
$var wire 1 J! stage3 [0] $end
$upscope $end

$scope module iRight $end
$var wire 1 = In [15] $end
$var wire 1 > In [14] $end
$var wire 1 ? In [13] $end
$var wire 1 @ In [12] $end
$var wire 1 A In [11] $end
$var wire 1 B In [10] $end
$var wire 1 C In [9] $end
$var wire 1 D In [8] $end
$var wire 1 E In [7] $end
$var wire 1 F In [6] $end
$var wire 1 G In [5] $end
$var wire 1 H In [4] $end
$var wire 1 I In [3] $end
$var wire 1 J In [2] $end
$var wire 1 K In [1] $end
$var wire 1 L In [0] $end
$var wire 1 R logical $end
$var wire 1 M ShAmt [3] $end
$var wire 1 N ShAmt [2] $end
$var wire 1 O ShAmt [1] $end
$var wire 1 P ShAmt [0] $end
$var wire 1 i out [15] $end
$var wire 1 j out [14] $end
$var wire 1 k out [13] $end
$var wire 1 l out [12] $end
$var wire 1 m out [11] $end
$var wire 1 n out [10] $end
$var wire 1 o out [9] $end
$var wire 1 p out [8] $end
$var wire 1 q out [7] $end
$var wire 1 r out [6] $end
$var wire 1 s out [5] $end
$var wire 1 t out [4] $end
$var wire 1 u out [3] $end
$var wire 1 v out [2] $end
$var wire 1 w out [1] $end
$var wire 1 x out [0] $end
$var wire 1 K! stage1 [15] $end
$var wire 1 L! stage1 [14] $end
$var wire 1 M! stage1 [13] $end
$var wire 1 N! stage1 [12] $end
$var wire 1 O! stage1 [11] $end
$var wire 1 P! stage1 [10] $end
$var wire 1 Q! stage1 [9] $end
$var wire 1 R! stage1 [8] $end
$var wire 1 S! stage1 [7] $end
$var wire 1 T! stage1 [6] $end
$var wire 1 U! stage1 [5] $end
$var wire 1 V! stage1 [4] $end
$var wire 1 W! stage1 [3] $end
$var wire 1 X! stage1 [2] $end
$var wire 1 Y! stage1 [1] $end
$var wire 1 Z! stage1 [0] $end
$var wire 1 [! stage2 [15] $end
$var wire 1 \! stage2 [14] $end
$var wire 1 ]! stage2 [13] $end
$var wire 1 ^! stage2 [12] $end
$var wire 1 _! stage2 [11] $end
$var wire 1 `! stage2 [10] $end
$var wire 1 a! stage2 [9] $end
$var wire 1 b! stage2 [8] $end
$var wire 1 c! stage2 [7] $end
$var wire 1 d! stage2 [6] $end
$var wire 1 e! stage2 [5] $end
$var wire 1 f! stage2 [4] $end
$var wire 1 g! stage2 [3] $end
$var wire 1 h! stage2 [2] $end
$var wire 1 i! stage2 [1] $end
$var wire 1 j! stage2 [0] $end
$var wire 1 k! stage3 [15] $end
$var wire 1 l! stage3 [14] $end
$var wire 1 m! stage3 [13] $end
$var wire 1 n! stage3 [12] $end
$var wire 1 o! stage3 [11] $end
$var wire 1 p! stage3 [10] $end
$var wire 1 q! stage3 [9] $end
$var wire 1 r! stage3 [8] $end
$var wire 1 s! stage3 [7] $end
$var wire 1 t! stage3 [6] $end
$var wire 1 u! stage3 [5] $end
$var wire 1 v! stage3 [4] $end
$var wire 1 w! stage3 [3] $end
$var wire 1 x! stage3 [2] $end
$var wire 1 y! stage3 [1] $end
$var wire 1 z! stage3 [0] $end
$upscope $end
$upscope $end

$scope module c0 $end
$var reg 1 {! clk $end
$var reg 1 |! rst $end
$var wire 1 U err $end
$var integer 32 }! cycle_count $end
$upscope $end
$upscope $end
$upscope $end
$enddefinitions $end
#0
$dumpvars
b11010100100100 $
b1 %
b1 &
07
bx 8
1{!
1|!
b10000 !
b100 "
b10 #
b10000 :
b100 ;
b10 <
b10000 V
b100 W
b10 X
bx 9
b1 }!
06
05
04
13
02
01
10
0/
0.
1-
0,
1+
0*
1)
1(
0'
1S
1T
0U
0h
0g
0f
1e
0d
0c
1b
0a
0`
1_
0^
1]
0\
1[
1Z
0Y
0x
1w
0v
0u
1t
0s
0r
1q
0p
1o
0n
1m
1l
0k
0j
0i
0*!
0)!
0(!
1'!
0&!
0%!
1$!
0#!
0"!
1!!
0~
1}
0|
1{
1z
0y
0:!
09!
08!
17!
06!
05!
14!
03!
02!
11!
00!
1/!
0.!
1-!
1,!
0+!
0J!
0I!
0H!
1G!
0F!
0E!
1D!
0C!
0B!
1A!
0@!
1?!
0>!
1=!
1<!
0;!
0Z!
1Y!
0X!
0W!
1V!
0U!
0T!
1S!
0R!
1Q!
0P!
1O!
1N!
0M!
0L!
0K!
0j!
1i!
0h!
0g!
1f!
0e!
0d!
1c!
0b!
1a!
0`!
1_!
1^!
0]!
0\!
0[!
0z!
1y!
0x!
0w!
1v!
0u!
0t!
1s!
0r!
1q!
0p!
1o!
1n!
0m!
0l!
0k!
1R
0Q
1P
0O
0N
0M
0L
0K
1J
0I
0H
1G
0F
0E
1D
0C
1B
0A
1@
1?
0>
0=
$end
#50
0{!
0S
b110101001001000 8
#100
1{!
1S
b101011001100011 $
b1101 %
b10 }!
1N
1M
1L
1K
0J
1F
0D
1C
0?
1>
1)!
1(!
0'!
1#!
0!!
1~
0z
1y
1Z!
0Y!
1U!
0S!
1R!
0N!
1M!
0e
0b
0_
0[
1u
0q
0o
0m
0l
0G!
0D!
1C!
0A!
1@!
0?!
0<!
1;!
1z!
0y!
1w!
0v!
1u!
1r!
0q!
0o!
0n!
1x
0w
0u
0t
0]
0Z
1Y
03
00
0-
0)
1j!
0i!
1e!
0c!
1b!
0^!
1]!
19!
18!
07!
13!
01!
10!
0,!
1+!
1E!
1D!
0C!
1?!
0=!
1<!
1y!
0w!
1v!
0r!
1q!
0+
0(
1'
0x
1w
1[
1Z
0Y
1)
1(
0'
#150
0{!
0S
b1010110011000110000000000000 8
#200
1{!
1S
b1000010001100101 $
b10 %
b11 }!
0P
1O
0N
0M
0K
1J
0C
0@
0>
1=
1c
1b
1^
1]
0[
1Y
1x
1t
1s
1q
1o
1I!
1H!
0E!
1C!
1=!
0<!
0y!
0s!
1r!
1o!
1m!
09!
08!
17!
16!
04!
03!
12!
11!
00!
0/!
1.!
0j!
1h!
1g!
0f!
0e!
1d!
1c!
0b!
0]!
1*!
0)!
1%!
0#!
0}
0{
1X!
0V!
1T!
0R!
0Q!
1P!
0O!
0M!
1K!
1j!
0h!
1f!
0d!
0c!
1b!
0a!
0_!
1]!
18!
07!
13!
01!
0-!
0+!
0z!
1x!
1w!
0v!
0u!
1t!
1s!
0r!
0m!
0I!
0H!
1G!
1F!
0D!
0C!
1B!
1A!
0@!
0?!
1>!
0w
0q
1p
1m
1k
1g
1f
0c
1a
1[
0Z
11
10
1,
1+
0)
1'
15
14
01
1/
1)
0(
0g
0f
1e
1d
0b
0a
1`
1_
0^
0]
1\
0x
1v
1u
0t
0s
1r
1q
0p
0k
1H!
0G!
1C!
0A!
0=!
0;!
1z!
0x!
1v!
0t!
0s!
1r!
0q!
0o!
1m!
1x
0v
1t
0r
0q
1p
0o
0m
1k
1f
0e
1a
0_
0[
0Y
05
04
13
12
00
0/
1.
1-
0,
0+
1*
14
03
1/
0-
0)
0'
#201
0|!
0T
#250
0{!
0S
b100001000110010100 8
#300
1{!
1S
b1100110100001101 $
b110 %
b100 }!
1N
1I
0G
0F
1D
1A
1>
1'!
0%!
0$!
1"!
1}
1z
1W!
0U!
0T!
1R!
1O!
1L!
0H!
0F!
1D!
0C!
1?!
0w!
0r!
1q!
0m!
0u
0p
1o
0k
0f
0d
1b
0a
1]
1i!
0g!
0f!
1d!
1a!
1^!
15!
03!
02!
10!
1-!
1A!
0?!
0>!
1<!
0z!
1x!
1u!
1r!
04
02
10
0/
1+
0x
1v
1s
1p
1_
0]
0\
1Z
1-
0+
0*
1(
#350
0{!
0S
b1100110100001101000000 8
#400
1{!
1S
b101011111101101 $
b1100 %
b101 }!
0O
1M
1G
1F
1E
1C
0A
1@
0=
1%!
1$!
1#!
1!!
0}
1|
0y
1U!
1T!
1S!
1Q!
0O!
1N!
0K!
0b
0`
0_
1x
1w
0v
0t
0s
0p
0o
1:!
17!
06!
05!
12!
1/!
0.!
0-!
1,!
1+!
0i!
1h!
1g!
0d!
0a!
1`!
1_!
0^!
0]!
1\!
1[!
0x!
0u!
1t!
1s!
0r!
0q!
1p!
1o!
1F!
1C!
0B!
0A!
1>!
1;!
00
0.
0-
1e!
1d!
1c!
1a!
0_!
1^!
0[!
15!
14!
13!
11!
0/!
1.!
0+!
1A!
1@!
1?!
1=!
0;!
1y!
1x!
1w!
1u!
0s!
1r!
0o!
1\
1Y
0x
0w
1v
1u
1*
1'
1x
0u
#450
0{!
0S
b101011111101101000000000000 8
#500
1{!
1S
b10010011000110 $
b101 %
b10 &
b110 }!
0R
1Q
1P
0M
0L
1K
0I
0G
0D
0C
0@
1?
0>
16
14
0*
0(
0'
0*!
0%!
0$!
0!!
0~
1}
0|
1J!
1H!
1d
1b
1a
1_
1^
1]
1[
0Y
1Y!
0X!
0W!
0S!
0R!
0P!
0L!
0x
1w
1u
1t
1s
1r
1p
1n
1i!
0h!
0g!
0c!
0b!
0`!
0\!
06
15
13
12
11
10
1.
1,
1h
1f
0:!
05!
04!
01!
00!
1/!
0.!
0J!
0F!
0A!
0@!
0=!
0<!
1;!
0w!
0v!
0t!
0p!
0u
0t
0r
0n
0h
0d
0_
0^
0[
0Z
1Y
03
02
00
0,
#550
0{!
0S
b11111 9
b11110 9
b11101 9
b11100 9
b11011 9
b11010 9
b1011111101101000000000000 8
b11001 9
b11000 9
b11111101101000000000000 8
b10111 9
b10110 9
b1111101101000000000000 8
b10101 9
b111101101000000000000 8
b10100 9
b11101101000000000000 8
b10011 9
b1101101000000000000 8
b10010 9
b101101000000000000 8
b10001 9
b1101000000000000 8
b10000 9
b1111 9
b10010011000110 8
b100100110 8
#600
1{!
1S
b1111011111100101 $
b111 %
b111 }!
1O
1L
0K
1G
1D
1C
1@
1>
1=
1n!
1m!
1l!
1k!
1*!
1)!
0(!
1$!
1!!
1~
1{
1y
0Z!
1V!
1S!
1R!
1O!
1M!
1L!
1K!
1:!
08!
07!
16!
15!
03!
02!
11!
10!
0/!
1-!
0,!
0j!
0i!
1g!
1f!
0e!
0d!
1c!
0a!
1`!
0^!
1\!
1[!
1z!
0y!
0x!
1w!
0u!
1t!
0r!
1p!
1o!
1I!
0H!
1F!
0D!
0C!
1B!
1A!
0?!
0>!
1=!
1<!
0;!
1h!
1e!
1d!
1a!
1_!
1^!
1]!
19!
18!
17!
06!
12!
1/!
1.!
1+!
1l
1k
1j
1i
1*
1)
1(
1'
1J!
1G!
1E!
1D!
1C!
0B!
1>!
1;!
1y!
1x!
1u!
1s!
1r!
1q!
1g
0f
1d
0b
0a
1`
1_
0]
0\
1[
1Z
0Y
1x
0w
0v
1u
0s
1r
0p
1n
1m
16
05
04
13
01
10
0.
1,
1+
1w
1v
1s
1q
1p
1o
1h
1e
1c
1b
1a
0`
1\
1Y
15
14
11
1/
1.
1-
#650
0{!
0S
b11111 9
b10000000000000000000000100100110 8
b11110 9
b11000000000000000000000100100110 8
b11101 9
b11100000000000000000000100100110 8
b11100 9
b11110000000000000000000100100110 8
b11011 9
b11111000000000000000000100100110 8
b11010 9
b11111100000000000000000100100110 8
b11001 9
b11111110000000000000000100100110 8
b11000 9
b11111111000000000000000100100110 8
b10111 9
b11111111100000000000000100100110 8
b10110 9
b11111111110000000000000100100110 8
b10101 9
b11111111111000000000000100100110 8
b10100 9
b11111111111100000000000100100110 8
b10011 9
b11111111111110000000000100100110 8
b10010 9
b11111111111111000000000100100110 8
b10001 9
b11111111111111100000000100100110 8
b10000 9
b11111111111111110000000100100110 8
b1111 9
b11111111111111111111011111100101 8
b11111111111111111111111111101111 8
#700
1{!
1S
b1101101110001111 $
b10 %
b1000 }!
0P
0N
1K
1I
0G
0F
0B
1A
0?
1H!
0F!
0D!
0C!
1B!
1@!
1?!
0<!
0z!
0y!
1v!
0r!
1(!
0$!
0~
1|
0{
1Z!
1X!
1W!
0V!
0U!
0T!
0M!
1j!
1i!
0h!
0g!
0f!
0_!
16!
02!
0.!
1,!
0+!
0x
0w
1t
0p
1f
0d
0b
0a
1`
1^
1]
0Z
06
05
12
0.
1F!
0B!
0>!
1<!
0;!
1z!
1y!
0x!
0w!
0v!
0o!
1x
1w
0v
0u
0t
0m
1d
0`
0\
1Z
0Y
16
15
04
03
02
0+
#750
0{!
0S
b11111 9
b11110 9
b11101 9
b11100 9
b11011 9
b11010 9
b11001 9
b11000 9
b10111 9
b10110 9
b10101 9
b10100 9
b10011 9
b10010 9
b10001 9
b10000 9
b1111 9
b11111111111111111101101110001111 8
b11111111111111111111011011100011 8
#800
1{!
1S
b111101011101000 $
b101 %
b0 &
b1001 }!
0Q
1P
0O
1N
0L
0K
0J
1G
1F
0D
1?
0=
0J!
0G!
1D!
1C!
1B!
0@!
0?!
1;!
0z!
1x!
1w!
0s!
1r!
1o!
0n!
0m!
0l!
0k!
06!
05!
13!
12!
00!
1.!
0-!
1+!
1h!
1g!
0e!
0d!
1b!
0`!
1_!
0]!
0*!
0)!
0(!
0'!
1&!
1$!
0!!
1~
0}
1{
0Z!
0Y!
0W!
1V!
1U!
1T!
0S!
0Q!
1P!
1M!
0L!
0K!
14
13
12
00
0/
1+
0*
0'
0j!
0i!
0g!
1f!
1e!
1d!
0c!
0a!
1`!
1]!
0\!
0[!
0:!
09!
08!
07!
16!
14!
01!
10!
0/!
1-!
0y!
0x!
1v!
0t!
1s!
0q!
1J!
0I!
1G!
0B!
0A!
1?!
1>!
0<!
0x
1v
1u
0q
1p
1m
0l
0k
0j
0i
0h
0e
1b
1a
1`
0^
0]
1Y
06
03
10
1/
1.
0,
0+
1'
1h
0g
1e
0`
0_
1]
1\
0Z
0w
0v
1t
0r
1q
0o
1I!
0F!
0E!
0D!
0C!
1B!
1@!
0=!
1<!
0;!
1z!
1y!
1x!
0w!
0u!
1t!
1q!
0p!
0o!
1x
1w
1v
0u
0s
1r
1o
0n
0m
1g
0d
0c
0b
0a
1`
1^
0[
1Z
0Y
16
05
13
0.
0-
1+
1*
0(
15
02
01
00
0/
1.
1,
0)
1(
0'
#850
0{!
0S
b11110101110100001111 8
#900
1{!
1S
b10100010111101 $
b1101 %
b1 &
b1010 }!
1R
1M
1L
1J
1H
0F
0C
0@
0>
1)!
1'!
1%!
0#!
0~
0{
0y
0J!
0I!
0H!
0G!
0h
0g
0f
0e
1_
0\
0Z
1Y!
1W!
0U!
0R!
0O!
0M!
0v
0t
0r
0q
0p
0o
1i!
1g!
0e!
0b!
0_!
0]!
06
05
04
03
1-
0*
0(
0`
0_
0^
0]
19!
17!
15!
03!
00!
0-!
0+!
1E!
1C!
1A!
0?!
0<!
0.
0-
0,
0+
0y!
0v!
0s!
0q!
0w
1[
1Y
1)
1'
#950
0{!
0S
b101000101111010000000000000 8
#1000
1{!
1S
b110001001100011 $
b1010 %
b0 &
b1011 }!
0R
0P
1O
0N
1K
0J
0I
0H
1F
0E
1C
0A
1>
1*!
0'!
0&!
0"!
1!!
0|
1{
1:!
09!
06!
13!
10!
0.!
1I!
1G!
1F!
1D!
0C!
0A!
0@!
1<!
1h
1g
1f
1d
1Z!
0X!
0W!
0V!
1U!
1Q!
0P!
0N!
1M!
1L!
1j!
0g!
0d!
1b!
0^!
0z!
1y!
1w!
1v!
0r!
1p!
1n!
0x
1v
1t
1z!
0w!
0t!
1r!
0n!
0j!
0i!
0h!
1g!
1c!
0b!
0`!
1_!
1^!
16
15
14
12
0g
0f
1b
1_
1]
1\
1Z
0Y
1J!
0I!
0F!
1C!
1@!
0>!
18!
05!
04!
00!
1/!
0,!
1+!
1H!
0E!
0D!
0@!
1?!
0<!
1;!
1f
0d
1`
0_
0\
1Y
0z!
0y!
0x!
1w!
1s!
0r!
0p!
1o!
1n!
1x
0t
05
04
10
1-
1+
1*
1(
0'
0x
0v
1u
1t
14
02
1.
0-
0*
1'
0f
1e
0b
1a
1^
0[
0Z
04
13
00
1/
1,
0)
0(
#1050
0{!
0S
b1100010011000110110001001 8
#1100
1{!
1S
b10000100100000 $
b1 &
b1100 }!
1R
0L
0K
0F
1D
0C
0>
0*!
0)!
0$!
1"!
0!!
0z
0:!
0h
0e
0a
0Z!
0Y!
0T!
1R!
0Q!
0L!
0f!
1d!
0c!
0^!
06
03
0/
0J!
08!
07!
02!
10!
0/!
0H!
0G!
0B!
1@!
0?!
0`
0v!
1t!
0s!
0n!
0t
0.
0^
0]
0,
0+
#1150
0{!
0S
b100001001000000000000000 8
#1200
1{!
1S
b11111010010110 $
b11 %
b1101 }!
1P
0M
1K
1J
1H
0G
1E
0D
1C
1B
1A
1@
1a
1^
1r
1m
1(!
1'!
1~
1}
1|
1z
1Z!
1Y!
1W!
0U!
1T!
1Q!
1P!
1O!
1N!
0M!
1i!
0g!
1f!
1c!
1b!
1a!
1`!
0_!
16!
15!
1.!
1-!
1,!
1/
1,
1F!
1E!
1>!
1=!
1<!
1y!
0w!
1v!
1s!
1r!
1q!
1p!
0o!
1w
0u
1t
1q
1p
1o
1n
0m
1d
1c
1\
1[
1Z
12
11
1*
1)
1(
#1250
0{!
0S
b11111010010110000 8
#1300
1{!
1S
b1101011001010011 $
b1011 %
b1110 }!
1M
1L
0J
1F
0E
0A
0?
1>
1=
1)!
0'!
1#!
0"!
0|
0z
1y
0Y!
1U!
0T!
0P!
0N!
1M!
1L!
0d
0c
0a
0^
0Z
1x
1v
0t
0r
0q
0p
0o
0n
02
01
0/
0,
0(
1g!
0f!
0b!
0`!
1_!
1^!
17!
05!
11!
00!
0,!
1G!
0E!
1A!
0@!
0<!
1w!
0v!
0r!
0p!
1o!
1n!
0x
0v
1u
1t
1]
0[
1+
0)
#1350
0{!
0S
b110101100101001100000000000 8
#1400
1{!
1S
b100101000000010 $
b1110 %
b1111 }!
0P
1N
0L
0H
0F
0B
1A
0@
0=
0G!
0F!
1B!
0A!
1?!
0>!
0;!
0y!
1x!
1u!
0t!
1r!
0q!
0o!
0n!
0(!
0%!
0#!
1!!
0~
0{
1z
0y
0Z!
1Y!
0W!
0U!
0R!
0M!
0i!
0g!
0d!
0_!
06!
03!
01!
1/!
0.!
0+!
1x
0w
0u
0t
0]
0\
0+
0*
0B!
0?!
0=!
1;!
0x!
0s!
#1450
0{!
0S
b10010100000001000000000000000 8
#1500
1{!
1S
b111001011001111 $
b11 %
b10 &
b10000 }!
0R
1Q
1P
0N
0M
1L
1J
1I
1F
1E
0A
1@
1?
16
0'
1(!
1'!
1&!
1#!
1"!
0!!
1~
0}
1{
1y
1:!
1G!
0C!
1?!
1=!
0;!
1a
1Z!
1X!
1U!
1T!
1R!
0Q!
1N!
1M!
0L!
0w!
0u!
1s!
0r!
1q!
1n!
0x
1u
1s
1p
0u
0s
1q
0p
1o
1l
1j!
1g!
1f!
1d!
0c!
1`!
1_!
0^!
06
13
11
1.
1e
0a
1]
1[
0Y
1J!
19!
16!
15!
14!
11!
10!
0/!
1.!
0-!
1+!
1I!
1F!
1E!
1D!
1A!
1@!
0?!
1>!
0=!
1;!
1h
1z!
1w!
1v!
1t!
0s!
1p!
1o!
0n!
03
01
1/
0.
1-
1*
1x
1u
1t
1r
0q
1n
1m
0l
1g
1d
1c
1b
1_
1^
0]
1\
0[
1Y
16
13
12
10
0/
1,
1+
0*
#1550
0{!
0S
b11111 9
b11110 9
b11101 9
b11100 9
b10100000001000000000000000 8
b11011 9
b11010 9
b11001 9
b100000001000000000000000 8
b11000 9
b10111 9
b1000000000000000 8
b10110 9
b10101 9
b10100 9
b10011 9
b10010 9
b10001 9
b10000 9
b1111 9
b111001011001111 8
b111001011001 8
#1600
1{!
1S
b101011001010 $
b1100 %
b10001 }!
0P
0O
1N
1M
0L
0J
1A
0@
0?
0>
0h
1f
0e
0c
0b
1a
1`
0^
1]
1[
1Z
0Y
0x
1w
1v
0t
0r
0o
0n
0m
0I!
0D!
1C!
1B!
0>!
1=!
1<!
0;!
1x!
0w!
0v!
1u!
1s!
0q!
0p!
0o!
0:!
18!
05!
04!
13!
12!
01!
0.!
1-!
1,!
1i!
1h!
0g!
0f!
1e!
1b!
0a!
0`!
1^!
1]!
0(!
0&!
1$!
0"!
1!!
0~
1}
0{
0z
0y
0Z!
0X!
1W!
0U!
1S!
0R!
1Q!
0N!
0M!
0j!
0h!
1g!
0e!
1c!
0b!
1a!
0^!
0]!
08!
06!
14!
02!
11!
00!
1/!
0-!
0,!
0+!
0z!
1y!
1v!
0u!
0t!
1r!
1q!
0J!
1I!
1H!
0F!
1D!
0A!
0@!
1?!
1>!
0=!
0w
0v
0u
1h
0d
1c
1b
0a
0_
0Z
1Y
06
15
14
02
00
0-
0,
0+
05
04
03
0g
0f
1e
1d
0c
0`
1_
1^
0\
1Z
1x
1w
0I!
0H!
0G!
0D!
0B!
1@!
0>!
1=!
0<!
1;!
0y!
1w!
0v!
1u!
0r!
0q!
0x
0w
0h
1f
0d
1c
0b
1a
0_
0^
0]
0Z
16
15
06
05
#1650
0{!
0S
b11111 9
b11110 9
b11101 9
b11100 9
b11011 9
b11010 9
b11001 9
b11000 9
b10111 9
b10110 9
b10101 9
b10100 9
b10011 9
b10010 9
b10001 9
b10000 9
b1111 9
b101011001010 8
b0 8
